{
  "scm": "git",
  "files": {
    "LICENSE.md": {
      "links": {
        "self": {
          "href": "https://api.bitbucket.org/2.0/snippets/pybitbucket/Xqoz8/995521ed9f86bbe4abaf03bb0df8d619c5e6440c/files/LICENSE.md"
        },
        "html": {
          "href": "https://bitbucket.org/snippets/pybitbucket/Xqoz8/revisions/995521ed9f86bbe4abaf03bb0df8d619c5e6440c#LICENSE.md"
        }
      }
    },
    "python-bitbucket/tests/example_upload_2.rst": {
      "links": {
        "self": {
          "href": "https://api.bitbucket.org/2.0/snippets/pybitbucket/Xqoz8/995521ed9f86bbe4abaf03bb0df8d619c5e6440c/files/python-bitbucket/tests/example_upload_2.rst"
        },
        "html": {
          "href": "https://bitbucket.org/snippets/pybitbucket/Xqoz8/revisions/995521ed9f86bbe4abaf03bb0df8d619c5e6440c#python-bitbucket/tests/example_upload_2.rst"
        }
      }
    }
  },
  "links": {
    "watchers": {
      "href": "https://api.bitbucket.org/2.0/snippets/pybitbucket/Xqoz8/watchers"
    },
    "commits": {
      "href": "https://api.bitbucket.org/2.0/snippets/pybitbucket/Xqoz8/commits"
    },
    "self": {
      "href": "https://api.bitbucket.org/2.0/snippets/pybitbucket/Xqoz8"
    },
    "comments": {
      "href": "https://api.bitbucket.org/2.0/snippets/pybitbucket/Xqoz8/comments"
    },
    "patch": {
      "href": "https://api.bitbucket.org/2.0/snippets/pybitbucket/Xqoz8/995521ed9f86bbe4abaf03bb0df8d619c5e6440c/patch"
    },
    "html": {
      "href": "https://bitbucket.org/snippets/pybitbucket/Xqoz8"
    },
    "diff": {
      "href": "https://api.bitbucket.org/2.0/snippets/pybitbucket/Xqoz8/995521ed9f86bbe4abaf03bb0df8d619c5e6440c/diff"
    },
    "clone": [
      {
        "href": "https://pybitbucket@bitbucket.org/snippets/pybitbucket/Xqoz8/test-snippet.git",
        "name": "https"
      },
      {
        "href": "ssh://git@bitbucket.org/snippets/pybitbucket/Xqoz8/test-snippet.git",
        "name": "ssh"
      }
    ]
  },
  "creator": {
    "username": "pybitbucket",
    "display_name": "Ian Buchanan",
    "type": "user",
    "uuid": "{27e49bd2-9ecb-4a41-8387-033c972d1399}",
    "links": {
      "self": {
        "href": "https://api.bitbucket.org/2.0/users/pybitbucket"
      },
      "html": {
        "href": "https://bitbucket.org/pybitbucket"
      },
      "avatar": {
        "href": "https://bitbucket-assetroot.s3.amazonaws.com/c/photos/2014/Oct/17/pybitbucket-avatar-415803637-7_avatar.png"
      }
    }
  },
  "title": "Test Snippet",
  "created_on": "2015-06-05T16:37:32.928441+00:00",
  "owner": {
    "username": "pybitbucket",
    "display_name": "Ian Buchanan",
    "type": "user",
    "uuid": "{27e49bd2-9ecb-4a41-8387-033c972d1399}",
    "links": {
      "self": {
        "href": "https://api.bitbucket.org/2.0/users/pybitbucket"
      },
      "html": {
        "href": "https://bitbucket.org/pybitbucket"
      },
      "avatar": {
        "href": "https://bitbucket-assetroot.s3.amazonaws.com/c/photos/2014/Oct/17/pybitbucket-avatar-415803637-7_avatar.png"
      }
    }
  },
  "updated_on": "2015-06-05T16:37:32.928470+00:00",
  "id": "Xqoz8",
  "is_private": "False"
}
