{
  "links": {
    "self": {
      "href": "https://api.bitbucket.org/2.0/repositories/ianbuchanan/example/commit/3dbbc91a3a9246ee0c5287a5ea74c5f16da9b554/comments/2626788"
    },
    "html": {
      "href": "https://bitbucket.org/ianbuchanan/example/commits/3dbbc91a3a9246ee0c5287a5ea74c5f16da9b554#comment-2626788"
    }
  },
  "content": {
    "raw": "This commit has a lot of code!",
    "markup": "markdown",
    "html": "<p>This commit has a lot of code!</p>"
  },
  "created_on": "2015-12-15T23:15:24.808018+00:00",
  "user": {
    "username": "ianbuchanan",
    "display_name": "Ian Buchanan",
    "type": "user",
    "uuid": "{8317ffb8-8e21-4641-8f05-8ce1d074ea6e}",
    "links": {
      "self": {
        "href": "https://api.bitbucket.org/2.0/users/ianbuchanan"
      },
      "html": {
        "href": "https://bitbucket.org/ianbuchanan/"
      },
      "avatar": {
        "href": "https://bitbucket.org/account/ianbuchanan/avatar/32/"
      }
    }
  },
  "commit": {
    "hash": "3dbbc91a3a9246ee0c5287a5ea74c5f16da9b554",
    "type": "commit",
    "links": {
      "self": {
        "href": "https://api.bitbucket.org/2.0/repositories/ianbuchanan/example/commit/3dbbc91a3a9246ee0c5287a5ea74c5f16da9b554"
      },
      "html": {
        "href": "https://bitbucket.org/ianbuchanan/example/commits/3dbbc91a3a9246ee0c5287a5ea74c5f16da9b554"
      }
    }
  },
  "updated_on": "2015-12-15T23:15:24.810266+00:00",
  "id": 2626788
}
